{
    "fluentMethods": true,
    "relationships": [],
    "fields": [
        {
            "fieldName": "countryName",
            "fieldType": "String"
        }
    ],
    "changelogDate": "20180121140208",
    "entityTableName": "country",
    "dto": "no",
    "pagination": "no",
    "service": "no",
    "jpaMetamodelFiltering": false
}