{
    "fluentMethods": true,
    "relationships": [
        {
            "relationshipType": "one-to-one",
            "relationshipName": "country",
            "otherEntityName": "country",
            "otherEntityField": "id",
            "ownerSide": true,
            "otherEntityRelationshipName": "cSGOTeam"
        },
        {
            "relationshipType": "one-to-one",
            "relationshipName": "lastMatch",
            "otherEntityName": "match",
            "otherEntityField": "id",
            "ownerSide": true,
            "otherEntityRelationshipName": "cSGOTeam"
        },
        {
            "relationshipType": "one-to-one",
            "relationshipName": "roundKills",
            "otherEntityName": "roundKills",
            "otherEntityField": "id",
            "ownerSide": true,
            "otherEntityRelationshipName": "cSGOTeam"
        }
    ],
    "fields": [
        {
            "fieldName": "name",
            "fieldType": "String"
        },
        {
            "fieldName": "rating",
            "fieldType": "Double"
        },
        {
            "fieldName": "creationDate",
            "fieldType": "LocalDate"
        },
        {
            "fieldName": "usersRating",
            "fieldType": "Double"
        },
        {
            "fieldName": "mapsPlayed",
            "fieldType": "Long"
        },
        {
            "fieldName": "playersPhoto",
            "fieldType": "byte[]",
            "fieldTypeBlobContent": "any"
        },
        {
            "fieldName": "teamLogo",
            "fieldType": "byte[]",
            "fieldTypeBlobContent": "any"
        },
        {
            "fieldName": "ctWinRatio",
            "fieldType": "Double"
        },
        {
            "fieldName": "tWinRatio",
            "fieldType": "Double"
        },
        {
            "fieldName": "numberOfMapsPlayed",
            "fieldType": "Long"
        },
        {
            "fieldName": "twitterUrl",
            "fieldType": "String"
        }
    ],
    "changelogDate": "20180121140206",
    "entityTableName": "csgo_team",
    "dto": "no",
    "pagination": "no",
    "service": "no",
    "jpaMetamodelFiltering": false
}