{
    "fluentMethods": true,
    "relationships": [],
    "fields": [
        {
            "fieldName": "noKill",
            "fieldType": "Long"
        },
        {
            "fieldName": "oneKill",
            "fieldType": "Long"
        },
        {
            "fieldName": "twoKills",
            "fieldType": "Long"
        },
        {
            "fieldName": "threeKills",
            "fieldType": "Long"
        },
        {
            "fieldName": "fourKills",
            "fieldType": "Long"
        },
        {
            "fieldName": "fiveKills",
            "fieldType": "Long"
        }
    ],
    "changelogDate": "20180121140204",
    "entityTableName": "round_kills",
    "dto": "no",
    "pagination": "no",
    "service": "no",
    "jpaMetamodelFiltering": false
}